{
  "development": {
    "username": "root",
    "password": null,
    "database": "database_development",
    "host": "workshop-db",
    "dialect": "mysql"
  },
  "test": {
    "username": "root",
    "password": null,
    "database": "database_test",
    "host": "workshop-db",
    "dialect": "mysql"
  },
  "production": {
    "username": "root",
    "password": "mouilly",
    "database": "database_production",
    "host": "workshop-db",
    "dialect": "mysql"
  }
}
